<?xml version="1.0" encoding="utf-8"?>
<!-- Generator: Adobe Illustrator 18.1.1, SVG Export Plug-In . SVG Version: 6.00 Build 0)  -->
<svg version="1.1" id="Layer_1" xmlns="http://www.w3.org/2000/svg" xmlns:xlink="http://www.w3.org/1999/xlink" x="0px" y="0px"
	 viewBox="-288 379 35 35" enable-background="new -288 379 35 35" xml:space="preserve">
<path fill="#3B5998" d="M-270.5,379c-9.7,0-17.5,7.8-17.5,17.5s7.8,17.5,17.5,17.5s17.5-7.8,17.5-17.5S-260.8,379-270.5,379z
	 M-265.7,389.7h-2.5c-0.4,0-1,0.2-1,1.1v2.4h3.5l-0.4,4h-3.1v11.4h-4.7v-11.4h-2.3v-4h2.3v-2.6c0-1.9,0.9-4.8,4.8-4.8l3.5,0V389.7z"
	/>
</svg>
