<?xml version="1.0" encoding="utf-8"?>
<!-- Generator: Adobe Illustrator 18.1.1, SVG Export Plug-In . SVG Version: 6.00 Build 0)  -->
<svg version="1.1" id="Layer_1" xmlns="http://www.w3.org/2000/svg" xmlns:xlink="http://www.w3.org/1999/xlink" x="0px" y="0px"
	 viewBox="-288 379 35 35" enable-background="new -288 379 35 35" xml:space="preserve">
<path fill="#6A453B" d="M-265.3,388.3h-10.4c-1.7,0-3,1.4-3,3v10.4c0,1.7,1.4,3,3,3h10.4c1.7,0,3-1.4,3-3v-10.4
	C-262.3,389.7-263.6,388.3-265.3,388.3z M-270.5,402c-3,0-5.4-2.4-5.4-5.4c0-3,2.4-5.4,5.4-5.4c3,0,5.4,2.4,5.4,5.4
	C-265.1,399.5-267.5,402-270.5,402z M-264.9,392.2c-0.7,0-1.3-0.6-1.3-1.3s0.6-1.3,1.3-1.3c0.7,0,1.3,0.6,1.3,1.3
	S-264.2,392.2-264.9,392.2z"/>
<path fill="#CA387B" d="M-265.3,388.3h-10.4c-1.7,0-3,1.4-3,3v10.4c0,1.7,1.4,3,3,3h10.4c1.7,0,3-1.4,3-3v-10.4
	C-262.3,389.7-263.6,388.3-265.3,388.3z M-270.5,402c-3,0-5.4-2.4-5.4-5.4c0-3,2.4-5.4,5.4-5.4c3,0,5.4,2.4,5.4,5.4
	C-265.1,399.5-267.5,402-270.5,402z M-264.9,392.2c-0.7,0-1.3-0.6-1.3-1.3s0.6-1.3,1.3-1.3c0.7,0,1.3,0.6,1.3,1.3
	S-264.2,392.2-264.9,392.2z"/>
<path fill="#6A453B" d="M-270.5,393.4c-1.7,0-3.1,1.4-3.1,3.1c0,1.7,1.4,3.1,3.1,3.1c1.7,0,3.1-1.4,3.1-3.1
	C-267.4,394.8-268.8,393.4-270.5,393.4z"/>
<path fill="#CA387B" d="M-270.5,393.4c-1.7,0-3.1,1.4-3.1,3.1c0,1.7,1.4,3.1,3.1,3.1c1.7,0,3.1-1.4,3.1-3.1
	C-267.4,394.8-268.8,393.4-270.5,393.4z"/>
<path fill="#6A453B" d="M-270.5,379c-9.7,0-17.5,7.8-17.5,17.5s7.8,17.5,17.5,17.5s17.5-7.8,17.5-17.5S-260.8,379-270.5,379z
	 M-260,401.8c0,2.9-2.4,5.3-5.3,5.3h-10.4c-2.9,0-5.3-2.4-5.3-5.3v-10.4c0-2.9,2.4-5.3,5.3-5.3h10.4c2.9,0,5.3,2.4,5.3,5.3V401.8z"
	/>
<path fill="#CA387B" d="M-270.5,379c-9.7,0-17.5,7.8-17.5,17.5s7.8,17.5,17.5,17.5s17.5-7.8,17.5-17.5S-260.8,379-270.5,379z
	 M-260,401.8c0,2.9-2.4,5.3-5.3,5.3h-10.4c-2.9,0-5.3-2.4-5.3-5.3v-10.4c0-2.9,2.4-5.3,5.3-5.3h10.4c2.9,0,5.3,2.4,5.3,5.3V401.8z"
	/>
</svg>
