<?xml version="1.0" encoding="iso-8859-1"?>
<!-- Generator: Adobe Illustrator 19.0.0, SVG Export Plug-In . SVG Version: 6.00 Build 0)  -->
<svg version="1.1" id="Capa_1" xmlns="http://www.w3.org/2000/svg" xmlns:xlink="http://www.w3.org/1999/xlink" x="0px" y="0px"
	 viewBox="0 0 469.333 469.333" style="enable-background:new 0 0 469.333 469.333;" xml:space="preserve">
<path style="fill:#303C42;" d="M467.542,260.75l-40.875-61.313v-82.104c0-2.833-1.125-5.542-3.125-7.542L316.875,3.125
	c-2-2-4.708-3.125-7.542-3.125h-224C61.813,0,42.667,19.135,42.667,42.667v156.771L1.792,260.75C0.625,262.5,0,264.563,0,266.667
	v160c0,23.531,19.146,42.667,42.667,42.667h384c23.521,0,42.667-19.135,42.667-42.667v-160
	C469.333,264.563,468.708,262.5,467.542,260.75z"/>
<path style="fill:#E6E6E6;" d="M320,36.417l70.25,70.25h-48.917c-11.771,0-21.333-9.573-21.333-21.333V36.417z"/>
<polygon style="fill:#546E7A;" points="426.667,237.896 438.736,256 426.667,256 "/>
<path style="fill:#FFFFFF;" d="M85.333,21.333h213.333v64c0,23.531,19.146,42.667,42.667,42.667h64v128H384
	c-23.521,0-42.667,19.135-42.667,42.667c0,11.76-9.563,21.333-21.333,21.333H149.333C137.563,320,128,310.427,128,298.667
	C128,275.135,108.854,256,85.333,256H64V42.667C64,30.906,73.563,21.333,85.333,21.333z"/>
<g>
	<polygon style="fill:#546E7A;" points="42.667,256 30.598,256 42.667,237.896 	"/>
	<path style="fill:#546E7A;" d="M426.667,448h-384c-11.771,0-21.333-9.573-21.333-21.333V277.333h64
		c11.771,0,21.333,9.573,21.333,21.333c0,23.531,19.146,42.667,42.667,42.667H320c23.521,0,42.667-19.135,42.667-42.667
		c0-11.76,9.563-21.333,21.333-21.333h64v149.333C448,438.427,438.438,448,426.667,448z"/>
</g>
<linearGradient id="SVGID_1_" gradientUnits="userSpaceOnUse" x1="-51.4585" y1="619.6612" x2="-47.0858" y2="615.2885" gradientTransform="matrix(21.3333 0 0 -21.3333 1430.1112 13315.2227)">
	<stop  offset="0" style="stop-color:#000000;stop-opacity:0.1"/>
	<stop  offset="1" style="stop-color:#000000;stop-opacity:0"/>
</linearGradient>
<path style="fill:url(#SVGID_1_);" d="M311.952,116.162l93.272,93.272c0.035-0.027,0.074-0.059,0.109-0.086v-81.318h-64
	C329.928,128.031,319.613,123.473,311.952,116.162z"/>
<linearGradient id="SVGID_2_" gradientUnits="userSpaceOnUse" x1="-67.567" y1="617.1695" x2="-43.9056" y2="606.1318" gradientTransform="matrix(21.3333 0 0 -21.3333 1430.1112 13315.2227)">
	<stop  offset="0" style="stop-color:#FFFFFF;stop-opacity:0.2"/>
	<stop  offset="1" style="stop-color:#FFFFFF;stop-opacity:0"/>
</linearGradient>
<path style="fill:url(#SVGID_2_);" d="M467.542,260.75l-40.875-61.313v-82.104c0-2.833-1.125-5.542-3.125-7.542L316.875,3.125
	c-2-2-4.708-3.125-7.542-3.125h-224C61.813,0,42.667,19.135,42.667,42.667v156.771L1.792,260.75C0.625,262.5,0,264.563,0,266.667
	v160c0,23.531,19.146,42.667,42.667,42.667h384c23.521,0,42.667-19.135,42.667-42.667v-160
	C469.333,264.563,468.708,262.5,467.542,260.75z"/>
<g>
</g>
<g>
</g>
<g>
</g>
<g>
</g>
<g>
</g>
<g>
</g>
<g>
</g>
<g>
</g>
<g>
</g>
<g>
</g>
<g>
</g>
<g>
</g>
<g>
</g>
<g>
</g>
<g>
</g>
</svg>
