<?xml version="1.0" encoding="utf-8"?>
<!-- Generator: Adobe Illustrator 18.1.1, SVG Export Plug-In . SVG Version: 6.00 Build 0)  -->
<svg version="1.1" id="Layer_1" xmlns="http://www.w3.org/2000/svg" xmlns:xlink="http://www.w3.org/1999/xlink" x="0px" y="0px"
	 viewBox="-256 357 99 80" enable-background="new -256 357 99 80" xml:space="preserve">
<path fill="#CCCCCC" d="M-181.6,357c-8.2,0-15.5,4-19.9,10.1c-1,1.3-1.1,3.1-0.3,4.6l2,4c0.7,1.4,0.6,3-0.2,4.4l-4.2,6.8
	c-0.9,1.5-0.9,3.3,0,4.7l4.1,6.6c0.9,1.4,0.9,3.2,0.1,4.6l-4.3,7.4c-0.8,1.4-0.8,3.1,0,4.5l4.4,7.6c0.8,1.3,0.8,3,0.1,4.3l-5.1,9.8
	c1.4,0.7,3.2,0.6,4.5-0.3c4.2-2.9,13.2-9.2,13.2-9.2c7.6-5.5,14.9-11.4,20.6-18.9c4.9-6.5,8.4-14.1,9.1-22.2
	C-156.4,371.1-165.9,357-181.6,357z"/>
<linearGradient id="SVGID_1_" gradientUnits="userSpaceOnUse" x1="-509.4007" y1="791.3619" x2="-508.4007" y2="791.3619" gradientTransform="matrix(98.4884 0 0 -166.034 49914.0625 131789.9688)">
	<stop  offset="0" style="stop-color:#39BAD0"/>
	<stop  offset="1" style="stop-color:#217FC7"/>
</linearGradient>
<path fill="url(#SVGID_1_)" d="M-181.6,357c-8.2,0-15.5,4-19.9,10.1c-1,1.3-1.1,3.1-0.3,4.6l2,4c0.7,1.4,0.6,3-0.2,4.4l-4.2,6.8
	c-0.9,1.5-0.9,3.3,0,4.7l4.1,6.6c0.9,1.4,0.9,3.2,0.1,4.6l-4.3,7.4c-0.8,1.4-0.8,3.1,0,4.5l4.4,7.6c0.8,1.3,0.8,3,0.1,4.3l-5.1,9.8
	c1.4,0.7,3.2,0.6,4.5-0.3c4.2-2.9,13.2-9.2,13.2-9.2c7.6-5.5,14.9-11.4,20.6-18.9c4.9-6.5,8.4-14.1,9.1-22.2
	C-156.4,371.1-165.9,357-181.6,357z"/>
<path fill="#CCCCCC" d="M-226.2,427c0,0,9.1,6.3,13.3,9.2c0.2,0.1,0.3,0.2,0.5,0.3l5.1-9.8c0.7-1.4,0.7-3-0.1-4.3l-4.4-7.6
	c-0.8-1.4-0.8-3.1,0-4.5l4.3-7.4c0.8-1.4,0.8-3.2-0.1-4.6l-4.1-6.6c-0.9-1.5-0.9-3.3,0-4.7l4.2-6.8c0.8-1.3,0.9-3,0.2-4.4
	c-2.1-4.1-3.9-8.2-7.2-11.5c-2.9-2.9-6.4-5-10.3-6.2c-2.3-0.7-4.8-1.1-7.2-1.1c-15.7,0-25.3,14.1-24.1,28.8
	c0.7,8.1,4.2,15.8,9.1,22.2C-241.2,415.6-233.8,421.5-226.2,427z"/>
<linearGradient id="SVGID_2_" gradientUnits="userSpaceOnUse" x1="-509.3878" y1="791.2565" x2="-508.3878" y2="791.2565" gradientTransform="matrix(98 0 0 -158.232 49664 125598.8516)">
	<stop  offset="0" style="stop-color:#39BAD0"/>
	<stop  offset="1" style="stop-color:#217FC7"/>
</linearGradient>
<path fill="url(#SVGID_2_)" d="M-226.2,427c0,0,9.1,6.3,13.3,9.2c0.2,0.1,0.3,0.2,0.5,0.3l5.1-9.8c0.7-1.4,0.7-3-0.1-4.3l-4.4-7.6
	c-0.8-1.4-0.8-3.1,0-4.5l4.3-7.4c0.8-1.4,0.8-3.2-0.1-4.6l-4.1-6.6c-0.9-1.5-0.9-3.3,0-4.7l4.2-6.8c0.8-1.3,0.9-3,0.2-4.4
	c-2.1-4.1-3.9-8.2-7.2-11.5c-2.9-2.9-6.4-5-10.3-6.2c-2.3-0.7-4.8-1.1-7.2-1.1c-15.7,0-25.3,14.1-24.1,28.8
	c0.7,8.1,4.2,15.8,9.1,22.2C-241.2,415.6-233.8,421.5-226.2,427z"/>
</svg>
