<?xml version="1.0" encoding="utf-8"?>
<!-- Generator: Adobe Illustrator 18.1.1, SVG Export Plug-In . SVG Version: 6.00 Build 0)  -->
<svg version="1.1" id="Layer_1" xmlns="http://www.w3.org/2000/svg" xmlns:xlink="http://www.w3.org/1999/xlink" x="0px" y="0px"
	 viewBox="-259 357 92 80" enable-background="new -259 357 92 80" xml:space="preserve">
<path fill="#CCCCCC" d="M-249.8,408c5.7,7.5,13,13.5,20.6,18.9c0,0,9.1,6.3,13.3,9.3c1.5,1,3.5,1,5,0c4.2-2.9,13.2-9.3,13.2-9.3
	c7.6-5.4,14.8-11.4,20.6-18.9c4.8-6.5,8.4-14.1,9.1-22.2c1.2-14.7-8.3-28.8-24-28.8c-9.2,0-17.3,5-21.4,12.4
	c-4.3-7.5-12.3-12.5-21.4-12.5c-15.6,0-25.3,14.1-24.1,28.8C-258.2,393.9-254.7,401.6-249.8,408z"/>
<linearGradient id="SVGID_1_" gradientUnits="userSpaceOnUse" x1="-515.1539" y1="789.0625" x2="-514.1539" y2="789.0625" gradientTransform="matrix(91 0 0 -80 46620 63522)">
	<stop  offset="0" style="stop-color:#F78CC4"/>
	<stop  offset="1" style="stop-color:#ED6485"/>
</linearGradient>
<path fill="url(#SVGID_1_)" d="M-249.8,408c5.7,7.5,13,13.5,20.6,18.9c0,0,9.1,6.3,13.3,9.3c1.5,1,3.5,1,5,0
	c4.2-2.9,13.2-9.3,13.2-9.3c7.6-5.4,14.8-11.4,20.6-18.9c4.8-6.5,8.4-14.1,9.1-22.2c1.2-14.7-8.3-28.8-24-28.8
	c-9.2,0-17.3,5-21.4,12.4c-4.3-7.5-12.3-12.5-21.4-12.5c-15.6,0-25.3,14.1-24.1,28.8C-258.2,393.9-254.7,401.6-249.8,408z"/>
</svg>
